

    // "ranger",
    // "mystic",
    // "knight",
    // "victorious",
    // "brawler",
    // "inanimate",
    // "cavalier",
    // "caretaker",
    // "invoker",
    // "Knight",
    // "cannoneer",
    // "cruel",
    // "abomination",
    // "draconic",
    // "forgotten",
    // "hellion",
    // "nightbringer",
    // "revenant",
    // "sentinel"