{
  "data": {
    "4": [
      {
        "team": [
          "Blitzcrank",
          "Poppy",
          "Vex",
          "Ziggs"
        ],
        "meaningfulCombos": [
          {
            "tag": "Scrap",
            "level": 2,
            "numChampions": 2
          },
          {
            "tag": "Bodyguard",
            "level": 2,
            "numChampions": 2
          },
          {
            "tag": "Yordle",
            "level": 3,
            "numChampions": 3
          },
          {
            "tag": "Arcanist",
            "level": 2,
            "numChampions": 2
          }
        ],
        "spatulas": [],
        "score": 9,
        "numBonuses": 9
      }
    ],
    "5": [
      {
        "team": [
          "Heimerdinger",
          "Janna",
          "Taric",
          "Vex",
          "Ziggs"
        ],
        "meaningfulCombos": [
          {
            "tag": "Yordle",
            "level": 3,
            "numChampions": 3
          },
          {
            "tag": "Scholar",
            "level": 2,
            "numChampions": 2
          },
          {
            "tag": "Scrap",
            "level": 2,
            "numChampions": 2
          },
          {
            "tag": "Enchanter",
            "level": 2,
            "numChampions": 2
          },
          {
            "tag": "Socialite",
            "level": 1,
            "numChampions": 1
          },
          {
            "tag": "Arcanist",
            "level": 2,
            "numChampions": 2
          }
        ],
        "spatulas": [],
        "score": 12,
        "numBonuses": 12
      }
    ],
    "6": [
      {
        "team": [
          "Blitzcrank",
          "Garen",
          "Leona",
          "Poppy",
          "Vex",
          "Ziggs"
        ],
        "meaningfulCombos": [
          {
            "tag": "Scrap",
            "level": 2,
            "numChampions": 2
          },
          {
            "tag": "Yordle",
            "level": 3,
            "numChampions": 3
          },
          {
            "tag": "Arcanist",
            "level": 2,
            "numChampions": 2
          },
          {
            "tag": "Bodyguard",
            "level": 2,
            "numChampions": 3
          },
          {
            "tag": "Academy",
            "level": 2,
            "numChampions": 2
          },
          {
            "tag": "Protector",
            "level": 2,
            "numChampions": 2
          }
        ],
        "spatulas": [],
        "score": 14,
        "numBonuses": 14
      }
    ],
    "7": [
      {
        "team": [
          "Heimerdinger",
          "Janna",
          "Orianna",
          "Seraphine",
          "Vex",
          "Ziggs",
          "Zilean"
        ],
        "meaningfulCombos": [
          {
            "tag": "Yordle",
            "level": 3,
            "numChampions": 3
          },
          {
            "tag": "Scholar",
            "level": 2,
            "numChampions": 2
          },
          {
            "tag": "Innovator",
            "level": 3,
            "numChampions": 3
          },
          {
            "tag": "Scrap",
            "level": 2,
            "numChampions": 2
          },
          {
            "tag": "Enchanter",
            "level": 2,
            "numChampions": 2
          },
          {
            "tag": "Clockwork",
            "level": 2,
            "numChampions": 2
          },
          {
            "tag": "Socialite",
            "level": 1,
            "numChampions": 1
          },
          {
            "tag": "Arcanist",
            "level": 2,
            "numChampions": 2
          }
        ],
        "spatulas": [],
        "score": 17,
        "numBonuses": 17
      },
      {
        "team": [
          "Blitzcrank",
          "Caitlyn",
          "Dr. Mundo",
          "Jinx",
          "Kassadin",
          "Kog'Maw",
          "Vi"
        ],
        "meaningfulCombos": [
          {
            "tag": "Mutant",
            "level": 3,
            "numChampions": 3
          },
          {
            "tag": "Sniper",
            "level": 2,
            "numChampions": 2
          },
          {
            "tag": "Twinshot",
            "level": 2,
            "numChampions": 2
          },
          {
            "tag": "Bruiser",
            "level": 2,
            "numChampions": 2
          },
          {
            "tag": "Enforcer",
            "level": 2,
            "numChampions": 2
          },
          {
            "tag": "Sister",
            "level": 2,
            "numChampions": 2
          },
          {
            "tag": "Scrap",
            "level": 2,
            "numChampions": 2
          },
          {
            "tag": "Protector",
            "level": 2,
            "numChampions": 2
          }
        ],
        "spatulas": [],
        "score": 17,
        "numBonuses": 17
      },
      {
        "team": [
          "Caitlyn",
          "Dr. Mundo",
          "Jinx",
          "Kog'Maw",
          "Malzahar",
          "Vi",
          "Ziggs"
        ],
        "meaningfulCombos": [
          {
            "tag": "Mutant",
            "level": 3,
            "numChampions": 3
          },
          {
            "tag": "Sniper",
            "level": 2,
            "numChampions": 2
          },
          {
            "tag": "Twinshot",
            "level": 2,
            "numChampions": 2
          },
          {
            "tag": "Bruiser",
            "level": 2,
            "numChampions": 2
          },
          {
            "tag": "Enforcer",
            "level": 2,
            "numChampions": 2
          },
          {
            "tag": "Sister",
            "level": 2,
            "numChampions": 2
          },
          {
            "tag": "Scrap",
            "level": 2,
            "numChampions": 2
          },
          {
            "tag": "Arcanist",
            "level": 2,
            "numChampions": 2
          }
        ],
        "spatulas": [],
        "score": 17,
        "numBonuses": 17
      }
    ],
    "8": [
      {
        "team": [
          "Caitlyn",
          "Dr. Mundo",
          "Jinx",
          "Kog'Maw",
          "Malzahar",
          "Vi",
          "Viktor",
          "Zac"
        ],
        "meaningfulCombos": [
          {
            "tag": "Chemtech",
            "level": 3,
            "numChampions": 3
          },
          {
            "tag": "Bruiser",
            "level": 2,
            "numChampions": 3
          },
          {
            "tag": "Arcanist",
            "level": 2,
            "numChampions": 2
          },
          {
            "tag": "Enforcer",
            "level": 2,
            "numChampions": 2
          },
          {
            "tag": "Sister",
            "level": 2,
            "numChampions": 2
          },
          {
            "tag": "Mutant",
            "level": 3,
            "numChampions": 3
          },
          {
            "tag": "Sniper",
            "level": 2,
            "numChampions": 2
          },
          {
            "tag": "Twinshot",
            "level": 2,
            "numChampions": 2
          }
        ],
        "spatulas": [],
        "score": 19,
        "numBonuses": 19
      },
      {
        "team": [
          "Caitlyn",
          "Dr. Mundo",
          "Jinx",
          "Kai'Sa",
          "Kog'Maw",
          "Vi",
          "Warwick",
          "Zac"
        ],
        "meaningfulCombos": [
          {
            "tag": "Mutant",
            "level": 3,
            "numChampions": 3
          },
          {
            "tag": "Sniper",
            "level": 2,
            "numChampions": 2
          },
          {
            "tag": "Twinshot",
            "level": 2,
            "numChampions": 2
          },
          {
            "tag": "Challenger",
            "level": 2,
            "numChampions": 2
          },
          {
            "tag": "Chemtech",
            "level": 3,
            "numChampions": 3
          },
          {
            "tag": "Bruiser",
            "level": 2,
            "numChampions": 3
          },
          {
            "tag": "Sister",
            "level": 2,
            "numChampions": 2
          },
          {
            "tag": "Enforcer",
            "level": 2,
            "numChampions": 2
          }
        ],
        "spatulas": [],
        "score": 19,
        "numBonuses": 19
      },
      {
        "team": [
          "Caitlyn",
          "Dr. Mundo",
          "Jinx",
          "Kai'Sa",
          "Kog'Maw",
          "Urgot",
          "Vi",
          "Warwick"
        ],
        "meaningfulCombos": [
          {
            "tag": "Mutant",
            "level": 3,
            "numChampions": 3
          },
          {
            "tag": "Sniper",
            "level": 2,
            "numChampions": 2
          },
          {
            "tag": "Twinshot",
            "level": 2,
            "numChampions": 3
          },
          {
            "tag": "Challenger",
            "level": 2,
            "numChampions": 2
          },
          {
            "tag": "Chemtech",
            "level": 3,
            "numChampions": 3
          },
          {
            "tag": "Bruiser",
            "level": 2,
            "numChampions": 2
          },
          {
            "tag": "Sister",
            "level": 2,
            "numChampions": 2
          },
          {
            "tag": "Enforcer",
            "level": 2,
            "numChampions": 2
          }
        ],
        "spatulas": [],
        "score": 19,
        "numBonuses": 19
      },
      {
        "team": [
          "Blitzcrank",
          "Caitlyn",
          "Dr. Mundo",
          "Jinx",
          "Kassadin",
          "Kog'Maw",
          "Poppy",
          "Vi"
        ],
        "meaningfulCombos": [
          {
            "tag": "Mutant",
            "level": 3,
            "numChampions": 3
          },
          {
            "tag": "Sniper",
            "level": 2,
            "numChampions": 2
          },
          {
            "tag": "Twinshot",
            "level": 2,
            "numChampions": 2
          },
          {
            "tag": "Protector",
            "level": 2,
            "numChampions": 2
          },
          {
            "tag": "Bruiser",
            "level": 2,
            "numChampions": 2
          },
          {
            "tag": "Sister",
            "level": 2,
            "numChampions": 2
          },
          {
            "tag": "Scrap",
            "level": 2,
            "numChampions": 2
          },
          {
            "tag": "Enforcer",
            "level": 2,
            "numChampions": 2
          },
          {
            "tag": "Bodyguard",
            "level": 2,
            "numChampions": 2
          }
        ],
        "spatulas": [],
        "score": 19,
        "numBonuses": 19
      },
      {
        "team": [
          "Caitlyn",
          "Dr. Mundo",
          "Jinx",
          "Kog'Maw",
          "Malzahar",
          "Urgot",
          "Vi",
          "Viktor"
        ],
        "meaningfulCombos": [
          {
            "tag": "Mutant",
            "level": 3,
            "numChampions": 3
          },
          {
            "tag": "Sniper",
            "level": 2,
            "numChampions": 2
          },
          {
            "tag": "Twinshot",
            "level": 2,
            "numChampions": 3
          },
          {
            "tag": "Chemtech",
            "level": 3,
            "numChampions": 3
          },
          {
            "tag": "Bruiser",
            "level": 2,
            "numChampions": 2
          },
          {
            "tag": "Sister",
            "level": 2,
            "numChampions": 2
          },
          {
            "tag": "Enforcer",
            "level": 2,
            "numChampions": 2
          },
          {
            "tag": "Arcanist",
            "level": 2,
            "numChampions": 2
          }
        ],
        "spatulas": [],
        "score": 19,
        "numBonuses": 19
      },
      {
        "team": [
          "Heimerdinger",
          "Janna",
          "Orianna",
          "Seraphine",
          "Taric",
          "Vex",
          "Ziggs",
          "Zilean"
        ],
        "meaningfulCombos": [
          {
            "tag": "Socialite",
            "level": 2,
            "numChampions": 2
          },
          {
            "tag": "Innovator",
            "level": 3,
            "numChampions": 3
          },
          {
            "tag": "Yordle",
            "level": 3,
            "numChampions": 3
          },
          {
            "tag": "Scholar",
            "level": 2,
            "numChampions": 2
          },
          {
            "tag": "Clockwork",
            "level": 2,
            "numChampions": 2
          },
          {
            "tag": "Scrap",
            "level": 2,
            "numChampions": 2
          },
          {
            "tag": "Arcanist",
            "level": 2,
            "numChampions": 2
          },
          {
            "tag": "Enchanter",
            "level": 3,
            "numChampions": 3
          }
        ],
        "spatulas": [],
        "score": 19,
        "numBonuses": 19
      },
      {
        "team": [
          "Blitzcrank",
          "Braum",
          "Caitlyn",
          "Dr. Mundo",
          "Jinx",
          "Kassadin",
          "Kog'Maw",
          "Vi"
        ],
        "meaningfulCombos": [
          {
            "tag": "Mutant",
            "level": 3,
            "numChampions": 3
          },
          {
            "tag": "Protector",
            "level": 2,
            "numChampions": 2
          },
          {
            "tag": "Bruiser",
            "level": 2,
            "numChampions": 2
          },
          {
            "tag": "Sniper",
            "level": 2,
            "numChampions": 2
          },
          {
            "tag": "Twinshot",
            "level": 2,
            "numChampions": 2
          },
          {
            "tag": "Sister",
            "level": 2,
            "numChampions": 2
          },
          {
            "tag": "Scrap",
            "level": 2,
            "numChampions": 2
          },
          {
            "tag": "Bodyguard",
            "level": 2,
            "numChampions": 2
          },
          {
            "tag": "Enforcer",
            "level": 2,
            "numChampions": 2
          }
        ],
        "spatulas": [],
        "score": 19,
        "numBonuses": 19
      },
      {
        "team": [
          "Blitzcrank",
          "Caitlyn",
          "Darius",
          "Dr. Mundo",
          "Jinx",
          "Kassadin",
          "Kog'Maw",
          "Vi"
        ],
        "meaningfulCombos": [
          {
            "tag": "Mutant",
            "level": 3,
            "numChampions": 3
          },
          {
            "tag": "Protector",
            "level": 2,
            "numChampions": 2
          },
          {
            "tag": "Bruiser",
            "level": 2,
            "numChampions": 2
          },
          {
            "tag": "Sniper",
            "level": 2,
            "numChampions": 2
          },
          {
            "tag": "Twinshot",
            "level": 2,
            "numChampions": 2
          },
          {
            "tag": "Sister",
            "level": 2,
            "numChampions": 2
          },
          {
            "tag": "Scrap",
            "level": 2,
            "numChampions": 2
          },
          {
            "tag": "Bodyguard",
            "level": 2,
            "numChampions": 2
          },
          {
            "tag": "Enforcer",
            "level": 2,
            "numChampions": 2
          }
        ],
        "spatulas": [],
        "score": 19,
        "numBonuses": 19
      },
      {
        "team": [
          "Blitzcrank",
          "Caitlyn",
          "Dr. Mundo",
          "Jinx",
          "Kassadin",
          "Kog'Maw",
          "Leona",
          "Vi"
        ],
        "meaningfulCombos": [
          {
            "tag": "Mutant",
            "level": 3,
            "numChampions": 3
          },
          {
            "tag": "Protector",
            "level": 2,
            "numChampions": 2
          },
          {
            "tag": "Bruiser",
            "level": 2,
            "numChampions": 2
          },
          {
            "tag": "Sniper",
            "level": 2,
            "numChampions": 2
          },
          {
            "tag": "Twinshot",
            "level": 2,
            "numChampions": 2
          },
          {
            "tag": "Sister",
            "level": 2,
            "numChampions": 2
          },
          {
            "tag": "Scrap",
            "level": 2,
            "numChampions": 2
          },
          {
            "tag": "Bodyguard",
            "level": 2,
            "numChampions": 2
          },
          {
            "tag": "Enforcer",
            "level": 2,
            "numChampions": 2
          }
        ],
        "spatulas": [],
        "score": 19,
        "numBonuses": 19
      }
    ],
    "9": [
      {
        "team": [
          "Blitzcrank",
          "Caitlyn",
          "Dr. Mundo",
          "Jinx",
          "Kassadin",
          "Kog'Maw",
          "Urgot",
          "Vi",
          "Zac"
        ],
        "meaningfulCombos": [
          {
            "tag": "Chemtech",
            "level": 3,
            "numChampions": 3
          },
          {
            "tag": "Bruiser",
            "level": 2,
            "numChampions": 3
          },
          {
            "tag": "Enforcer",
            "level": 2,
            "numChampions": 2
          },
          {
            "tag": "Sister",
            "level": 2,
            "numChampions": 2
          },
          {
            "tag": "Twinshot",
            "level": 2,
            "numChampions": 3
          },
          {
            "tag": "Mutant",
            "level": 3,
            "numChampions": 3
          },
          {
            "tag": "Sniper",
            "level": 2,
            "numChampions": 2
          },
          {
            "tag": "Protector",
            "level": 2,
            "numChampions": 2
          },
          {
            "tag": "Scrap",
            "level": 2,
            "numChampions": 2
          }
        ],
        "spatulas": [],
        "score": 22,
        "numBonuses": 22
      },
      {
        "team": [
          "Caitlyn",
          "Dr. Mundo",
          "Ekko",
          "Jinx",
          "Kog'Maw",
          "Malzahar",
          "Twitch",
          "Vi",
          "Viktor"
        ],
        "meaningfulCombos": [
          {
            "tag": "Chemtech",
            "level": 3,
            "numChampions": 3
          },
          {
            "tag": "Assassin",
            "level": 2,
            "numChampions": 2
          },
          {
            "tag": "Mutant",
            "level": 3,
            "numChampions": 3
          },
          {
            "tag": "Bruiser",
            "level": 2,
            "numChampions": 2
          },
          {
            "tag": "Scrap",
            "level": 2,
            "numChampions": 2
          },
          {
            "tag": "Sister",
            "level": 2,
            "numChampions": 2
          },
          {
            "tag": "Twinshot",
            "level": 2,
            "numChampions": 2
          },
          {
            "tag": "Sniper",
            "level": 2,
            "numChampions": 2
          },
          {
            "tag": "Arcanist",
            "level": 2,
            "numChampions": 2
          },
          {
            "tag": "Enforcer",
            "level": 2,
            "numChampions": 2
          }
        ],
        "spatulas": [],
        "score": 22,
        "numBonuses": 22
      },
      {
        "team": [
          "Caitlyn",
          "Dr. Mundo",
          "Jinx",
          "Kog'Maw",
          "Malzahar",
          "Urgot",
          "Vi",
          "Zac",
          "Ziggs"
        ],
        "meaningfulCombos": [
          {
            "tag": "Chemtech",
            "level": 3,
            "numChampions": 3
          },
          {
            "tag": "Twinshot",
            "level": 2,
            "numChampions": 3
          },
          {
            "tag": "Mutant",
            "level": 3,
            "numChampions": 3
          },
          {
            "tag": "Bruiser",
            "level": 2,
            "numChampions": 3
          },
          {
            "tag": "Sister",
            "level": 2,
            "numChampions": 2
          },
          {
            "tag": "Scrap",
            "level": 2,
            "numChampions": 2
          },
          {
            "tag": "Sniper",
            "level": 2,
            "numChampions": 2
          },
          {
            "tag": "Arcanist",
            "level": 2,
            "numChampions": 2
          },
          {
            "tag": "Enforcer",
            "level": 2,
            "numChampions": 2
          }
        ],
        "spatulas": [],
        "score": 22,
        "numBonuses": 22
      },
      {
        "team": [
          "Caitlyn",
          "Dr. Mundo",
          "Jinx",
          "Kog'Maw",
          "Malzahar",
          "Trundle",
          "Urgot",
          "Vi",
          "Viktor"
        ],
        "meaningfulCombos": [
          {
            "tag": "Chemtech",
            "level": 3,
            "numChampions": 3
          },
          {
            "tag": "Twinshot",
            "level": 2,
            "numChampions": 3
          },
          {
            "tag": "Mutant",
            "level": 3,
            "numChampions": 3
          },
          {
            "tag": "Bruiser",
            "level": 2,
            "numChampions": 3
          },
          {
            "tag": "Sister",
            "level": 2,
            "numChampions": 2
          },
          {
            "tag": "Scrap",
            "level": 2,
            "numChampions": 2
          },
          {
            "tag": "Sniper",
            "level": 2,
            "numChampions": 2
          },
          {
            "tag": "Arcanist",
            "level": 2,
            "numChampions": 2
          },
          {
            "tag": "Enforcer",
            "level": 2,
            "numChampions": 2
          }
        ],
        "spatulas": [],
        "score": 22,
        "numBonuses": 22
      },
      {
        "team": [
          "Caitlyn",
          "Dr. Mundo",
          "Janna",
          "Jinx",
          "Kog'Maw",
          "Lissandra",
          "Malzahar",
          "Vi",
          "Viktor"
        ],
        "meaningfulCombos": [
          {
            "tag": "Chemtech",
            "level": 3,
            "numChampions": 3
          },
          {
            "tag": "Mutant",
            "level": 3,
            "numChampions": 3
          },
          {
            "tag": "Bruiser",
            "level": 2,
            "numChampions": 2
          },
          {
            "tag": "Arcanist",
            "level": 2,
            "numChampions": 2
          },
          {
            "tag": "Scholar",
            "level": 2,
            "numChampions": 2
          },
          {
            "tag": "Sniper",
            "level": 2,
            "numChampions": 2
          },
          {
            "tag": "Twinshot",
            "level": 2,
            "numChampions": 2
          },
          {
            "tag": "Enforcer",
            "level": 2,
            "numChampions": 2
          },
          {
            "tag": "Sister",
            "level": 2,
            "numChampions": 2
          },
          {
            "tag": "Scrap",
            "level": 2,
            "numChampions": 2
          }
        ],
        "spatulas": [],
        "score": 22,
        "numBonuses": 22
      },
      {
        "team": [
          "Caitlyn",
          "Dr. Mundo",
          "Janna",
          "Jinx",
          "Kai'Sa",
          "Kog'Maw",
          "Lissandra",
          "Vi",
          "Warwick"
        ],
        "meaningfulCombos": [
          {
            "tag": "Chemtech",
            "level": 3,
            "numChampions": 3
          },
          {
            "tag": "Mutant",
            "level": 3,
            "numChampions": 3
          },
          {
            "tag": "Bruiser",
            "level": 2,
            "numChampions": 2
          },
          {
            "tag": "Scholar",
            "level": 2,
            "numChampions": 2
          },
          {
            "tag": "Sniper",
            "level": 2,
            "numChampions": 2
          },
          {
            "tag": "Twinshot",
            "level": 2,
            "numChampions": 2
          },
          {
            "tag": "Enforcer",
            "level": 2,
            "numChampions": 2
          },
          {
            "tag": "Sister",
            "level": 2,
            "numChampions": 2
          },
          {
            "tag": "Scrap",
            "level": 2,
            "numChampions": 2
          },
          {
            "tag": "Challenger",
            "level": 2,
            "numChampions": 2
          }
        ],
        "spatulas": [],
        "score": 22,
        "numBonuses": 22
      },
      {
        "team": [
          "Caitlyn",
          "Dr. Mundo",
          "Jinx",
          "Kai'Sa",
          "Kog'Maw",
          "Vi",
          "Viktor",
          "Warwick",
          "Ziggs"
        ],
        "meaningfulCombos": [
          {
            "tag": "Chemtech",
            "level": 3,
            "numChampions": 3
          },
          {
            "tag": "Mutant",
            "level": 3,
            "numChampions": 3
          },
          {
            "tag": "Bruiser",
            "level": 2,
            "numChampions": 2
          },
          {
            "tag": "Sniper",
            "level": 2,
            "numChampions": 2
          },
          {
            "tag": "Twinshot",
            "level": 2,
            "numChampions": 2
          },
          {
            "tag": "Enforcer",
            "level": 2,
            "numChampions": 2
          },
          {
            "tag": "Sister",
            "level": 2,
            "numChampions": 2
          },
          {
            "tag": "Arcanist",
            "level": 2,
            "numChampions": 2
          },
          {
            "tag": "Challenger",
            "level": 2,
            "numChampions": 2
          },
          {
            "tag": "Scrap",
            "level": 2,
            "numChampions": 2
          }
        ],
        "spatulas": [],
        "score": 22,
        "numBonuses": 22
      },
      {
        "team": [
          "Dr. Mundo",
          "Fiora",
          "Jinx",
          "Kai'Sa",
          "Kog'Maw",
          "Tristana",
          "Vex",
          "Vi",
          "Ziggs"
        ],
        "meaningfulCombos": [
          {
            "tag": "Mutant",
            "level": 3,
            "numChampions": 3
          },
          {
            "tag": "Bruiser",
            "level": 2,
            "numChampions": 2
          },
          {
            "tag": "Enforcer",
            "level": 2,
            "numChampions": 2
          },
          {
            "tag": "Sister",
            "level": 2,
            "numChampions": 2
          },
          {
            "tag": "Sniper",
            "level": 2,
            "numChampions": 2
          },
          {
            "tag": "Twinshot",
            "level": 2,
            "numChampions": 2
          },
          {
            "tag": "Challenger",
            "level": 2,
            "numChampions": 2
          },
          {
            "tag": "Yordle",
            "level": 3,
            "numChampions": 3
          },
          {
            "tag": "Arcanist",
            "level": 2,
            "numChampions": 2
          },
          {
            "tag": "Scrap",
            "level": 2,
            "numChampions": 2
          }
        ],
        "spatulas": [],
        "score": 22,
        "numBonuses": 22
      },
      {
        "team": [
          "Caitlyn",
          "Dr. Mundo",
          "Jinx",
          "Kog'Maw",
          "Malzahar",
          "Trundle",
          "Vi",
          "Viktor",
          "Zac"
        ],
        "meaningfulCombos": [
          {
            "tag": "Sister",
            "level": 2,
            "numChampions": 2
          },
          {
            "tag": "Scrap",
            "level": 2,
            "numChampions": 2
          },
          {
            "tag": "Twinshot",
            "level": 2,
            "numChampions": 2
          },
          {
            "tag": "Enforcer",
            "level": 2,
            "numChampions": 2
          },
          {
            "tag": "Bruiser",
            "level": 4,
            "numChampions": 4
          },
          {
            "tag": "Chemtech",
            "level": 3,
            "numChampions": 3
          },
          {
            "tag": "Mutant",
            "level": 3,
            "numChampions": 3
          },
          {
            "tag": "Sniper",
            "level": 2,
            "numChampions": 2
          },
          {
            "tag": "Arcanist",
            "level": 2,
            "numChampions": 2
          }
        ],
        "spatulas": [],
        "score": 22,
        "numBonuses": 22
      },
      {
        "team": [
          "Caitlyn",
          "Dr. Mundo",
          "Jinx",
          "Kai'Sa",
          "Kog'Maw",
          "Trundle",
          "Vi",
          "Warwick",
          "Zac"
        ],
        "meaningfulCombos": [
          {
            "tag": "Sister",
            "level": 2,
            "numChampions": 2
          },
          {
            "tag": "Scrap",
            "level": 2,
            "numChampions": 2
          },
          {
            "tag": "Twinshot",
            "level": 2,
            "numChampions": 2
          },
          {
            "tag": "Enforcer",
            "level": 2,
            "numChampions": 2
          },
          {
            "tag": "Bruiser",
            "level": 4,
            "numChampions": 4
          },
          {
            "tag": "Chemtech",
            "level": 3,
            "numChampions": 3
          },
          {
            "tag": "Mutant",
            "level": 3,
            "numChampions": 3
          },
          {
            "tag": "Sniper",
            "level": 2,
            "numChampions": 2
          },
          {
            "tag": "Challenger",
            "level": 2,
            "numChampions": 2
          }
        ],
        "spatulas": [],
        "score": 22,
        "numBonuses": 22
      },
      {
        "team": [
          "Caitlyn",
          "Dr. Mundo",
          "Jinx",
          "Kai'Sa",
          "Kog'Maw",
          "Trundle",
          "Urgot",
          "Vi",
          "Warwick"
        ],
        "meaningfulCombos": [
          {
            "tag": "Sister",
            "level": 2,
            "numChampions": 2
          },
          {
            "tag": "Scrap",
            "level": 2,
            "numChampions": 2
          },
          {
            "tag": "Twinshot",
            "level": 2,
            "numChampions": 3
          },
          {
            "tag": "Enforcer",
            "level": 2,
            "numChampions": 2
          },
          {
            "tag": "Bruiser",
            "level": 2,
            "numChampions": 3
          },
          {
            "tag": "Chemtech",
            "level": 3,
            "numChampions": 3
          },
          {
            "tag": "Mutant",
            "level": 3,
            "numChampions": 3
          },
          {
            "tag": "Sniper",
            "level": 2,
            "numChampions": 2
          },
          {
            "tag": "Challenger",
            "level": 2,
            "numChampions": 2
          }
        ],
        "spatulas": [],
        "score": 22,
        "numBonuses": 22
      },
      {
        "team": [
          "Caitlyn",
          "Dr. Mundo",
          "Ekko",
          "Jinx",
          "Kai'Sa",
          "Kog'Maw",
          "Twitch",
          "Vi",
          "Warwick"
        ],
        "meaningfulCombos": [
          {
            "tag": "Chemtech",
            "level": 3,
            "numChampions": 3
          },
          {
            "tag": "Challenger",
            "level": 2,
            "numChampions": 2
          },
          {
            "tag": "Mutant",
            "level": 3,
            "numChampions": 3
          },
          {
            "tag": "Bruiser",
            "level": 2,
            "numChampions": 2
          },
          {
            "tag": "Assassin",
            "level": 2,
            "numChampions": 2
          },
          {
            "tag": "Scrap",
            "level": 2,
            "numChampions": 2
          },
          {
            "tag": "Sister",
            "level": 2,
            "numChampions": 2
          },
          {
            "tag": "Twinshot",
            "level": 2,
            "numChampions": 2
          },
          {
            "tag": "Sniper",
            "level": 2,
            "numChampions": 2
          },
          {
            "tag": "Enforcer",
            "level": 2,
            "numChampions": 2
          }
        ],
        "spatulas": [],
        "score": 22,
        "numBonuses": 22
      },
      {
        "team": [
          "Blitzcrank",
          "Caitlyn",
          "Dr. Mundo",
          "Graves",
          "Jinx",
          "Kassadin",
          "Kog'Maw",
          "Leona",
          "Vi"
        ],
        "meaningfulCombos": [
          {
            "tag": "Academy",
            "level": 2,
            "numChampions": 2
          },
          {
            "tag": "Twinshot",
            "level": 2,
            "numChampions": 3
          },
          {
            "tag": "Bodyguard",
            "level": 2,
            "numChampions": 2
          },
          {
            "tag": "Mutant",
            "level": 3,
            "numChampions": 3
          },
          {
            "tag": "Sniper",
            "level": 2,
            "numChampions": 2
          },
          {
            "tag": "Scrap",
            "level": 2,
            "numChampions": 2
          },
          {
            "tag": "Protector",
            "level": 2,
            "numChampions": 2
          },
          {
            "tag": "Bruiser",
            "level": 2,
            "numChampions": 2
          },
          {
            "tag": "Enforcer",
            "level": 2,
            "numChampions": 2
          },
          {
            "tag": "Sister",
            "level": 2,
            "numChampions": 2
          }
        ],
        "spatulas": [],
        "score": 22,
        "numBonuses": 22
      },
      {
        "team": [
          "Blitzcrank",
          "Caitlyn",
          "Dr. Mundo",
          "Garen",
          "Jinx",
          "Kassadin",
          "Kog'Maw",
          "Leona",
          "Vi"
        ],
        "meaningfulCombos": [
          {
            "tag": "Mutant",
            "level": 3,
            "numChampions": 3
          },
          {
            "tag": "Sniper",
            "level": 2,
            "numChampions": 2
          },
          {
            "tag": "Twinshot",
            "level": 2,
            "numChampions": 2
          },
          {
            "tag": "Sister",
            "level": 2,
            "numChampions": 2
          },
          {
            "tag": "Scrap",
            "level": 2,
            "numChampions": 2
          },
          {
            "tag": "Enforcer",
            "level": 2,
            "numChampions": 2
          },
          {
            "tag": "Bruiser",
            "level": 2,
            "numChampions": 2
          },
          {
            "tag": "Protector",
            "level": 3,
            "numChampions": 3
          },
          {
            "tag": "Academy",
            "level": 2,
            "numChampions": 2
          },
          {
            "tag": "Bodyguard",
            "level": 2,
            "numChampions": 2
          }
        ],
        "spatulas": [],
        "score": 22,
        "numBonuses": 22
      }
    ],
    "10": [
      {
        "team": [
          "Caitlyn",
          "Dr. Mundo",
          "Janna",
          "Jinx",
          "Kai'Sa",
          "Kog'Maw",
          "Lissandra",
          "Taric",
          "Vi",
          "Warwick"
        ],
        "meaningfulCombos": [
          {
            "tag": "Enforcer",
            "level": 2,
            "numChampions": 2
          },
          {
            "tag": "Sister",
            "level": 2,
            "numChampions": 2
          },
          {
            "tag": "Bruiser",
            "level": 2,
            "numChampions": 2
          },
          {
            "tag": "Scrap",
            "level": 2,
            "numChampions": 2
          },
          {
            "tag": "Twinshot",
            "level": 2,
            "numChampions": 2
          },
          {
            "tag": "Sniper",
            "level": 2,
            "numChampions": 2
          },
          {
            "tag": "Enchanter",
            "level": 2,
            "numChampions": 2
          },
          {
            "tag": "Scholar",
            "level": 2,
            "numChampions": 2
          },
          {
            "tag": "Mutant",
            "level": 3,
            "numChampions": 3
          },
          {
            "tag": "Challenger",
            "level": 2,
            "numChampions": 2
          },
          {
            "tag": "Chemtech",
            "level": 3,
            "numChampions": 3
          },
          {
            "tag": "Socialite",
            "level": 1,
            "numChampions": 1
          }
        ],
        "spatulas": [],
        "score": 25,
        "numBonuses": 25
      },
      {
        "team": [
          "Caitlyn",
          "Dr. Mundo",
          "Janna",
          "Jinx",
          "Kog'Maw",
          "Lissandra",
          "Malzahar",
          "Taric",
          "Vi",
          "Viktor"
        ],
        "meaningfulCombos": [
          {
            "tag": "Enforcer",
            "level": 2,
            "numChampions": 2
          },
          {
            "tag": "Sniper",
            "level": 2,
            "numChampions": 2
          },
          {
            "tag": "Sister",
            "level": 2,
            "numChampions": 2
          },
          {
            "tag": "Bruiser",
            "level": 2,
            "numChampions": 2
          },
          {
            "tag": "Mutant",
            "level": 3,
            "numChampions": 3
          },
          {
            "tag": "Twinshot",
            "level": 2,
            "numChampions": 2
          },
          {
            "tag": "Arcanist",
            "level": 2,
            "numChampions": 2
          },
          {
            "tag": "Chemtech",
            "level": 3,
            "numChampions": 3
          },
          {
            "tag": "Scrap",
            "level": 2,
            "numChampions": 2
          },
          {
            "tag": "Scholar",
            "level": 2,
            "numChampions": 2
          },
          {
            "tag": "Enchanter",
            "level": 2,
            "numChampions": 2
          },
          {
            "tag": "Socialite",
            "level": 1,
            "numChampions": 1
          }
        ],
        "spatulas": [],
        "score": 25,
        "numBonuses": 25
      }
    ]
  },
  "description": {
    "name": "results_set6_4-10-heur_v6",
    "tag": null,
    "tagLevel": 0,
    "withSpatula": false
  }
}