{
  "data": {
    "4": [
      {
        "team": [
          "Blitzcrank",
          "Ekko",
          "Garen",
          "Katarina"
        ],
        "meaningfulCombos": [
          {
            "tag": "Scrap",
            "level": 2,
            "numChampions": 2
          },
          {
            "tag": "Protector",
            "level": 2,
            "numChampions": 2
          },
          {
            "tag": "Assassin",
            "level": 2,
            "numChampions": 2
          },
          {
            "tag": "Academy",
            "level": 2,
            "numChampions": 2
          }
        ],
        "spatulas": [],
        "score": 8,
        "numBonuses": 8
      },
      {
        "team": [
          "Blitzcrank",
          "Ekko",
          "Katarina",
          "Leona"
        ],
        "meaningfulCombos": [
          {
            "tag": "Scrap",
            "level": 2,
            "numChampions": 2
          },
          {
            "tag": "Bodyguard",
            "level": 2,
            "numChampions": 2
          },
          {
            "tag": "Assassin",
            "level": 2,
            "numChampions": 2
          },
          {
            "tag": "Academy",
            "level": 2,
            "numChampions": 2
          }
        ],
        "spatulas": [],
        "score": 8,
        "numBonuses": 8
      },
      {
        "team": [
          "Blitzcrank",
          "Poppy",
          "Vex",
          "Ziggs"
        ],
        "meaningfulCombos": [
          {
            "tag": "Scrap",
            "level": 2,
            "numChampions": 2
          },
          {
            "tag": "Bodyguard",
            "level": 2,
            "numChampions": 2
          },
          {
            "tag": "Yordle",
            "level": 3,
            "numChampions": 3
          },
          {
            "tag": "Arcanist",
            "level": 2,
            "numChampions": 2
          }
        ],
        "spatulas": [],
        "score": 8,
        "numBonuses": 9
      },
      {
        "team": [
          "Lulu",
          "Taric",
          "Vex",
          "Ziggs"
        ],
        "meaningfulCombos": [
          {
            "tag": "Yordle",
            "level": 3,
            "numChampions": 3
          },
          {
            "tag": "Enchanter",
            "level": 2,
            "numChampions": 2
          },
          {
            "tag": "Socialite",
            "level": 1,
            "numChampions": 1
          },
          {
            "tag": "Arcanist",
            "level": 2,
            "numChampions": 2
          }
        ],
        "spatulas": [],
        "score": 8,
        "numBonuses": 8
      }
    ],
    "5": [
      {
        "team": [
          "Blitzcrank",
          "Braum",
          "Darius",
          "Ekko",
          "Shaco"
        ],
        "meaningfulCombos": [
          {
            "tag": "Scrap",
            "level": 2,
            "numChampions": 2
          },
          {
            "tag": "Bodyguard",
            "level": 2,
            "numChampions": 3
          },
          {
            "tag": "Syndicate",
            "level": 3,
            "numChampions": 3
          },
          {
            "tag": "Assassin",
            "level": 2,
            "numChampions": 2
          }
        ],
        "spatulas": [],
        "score": 10,
        "numBonuses": 10
      },
      {
        "team": [
          "Blitzcrank",
          "Braum",
          "Darius",
          "Janna",
          "Zyra"
        ],
        "meaningfulCombos": [
          {
            "tag": "Scrap",
            "level": 2,
            "numChampions": 2
          },
          {
            "tag": "Bodyguard",
            "level": 2,
            "numChampions": 3
          },
          {
            "tag": "Syndicate",
            "level": 3,
            "numChampions": 3
          },
          {
            "tag": "Scholar",
            "level": 2,
            "numChampions": 2
          }
        ],
        "spatulas": [],
        "score": 10,
        "numBonuses": 10
      },
      {
        "team": [
          "Blitzcrank",
          "Braum",
          "Darius",
          "Twisted Fate",
          "Ziggs"
        ],
        "meaningfulCombos": [
          {
            "tag": "Scrap",
            "level": 2,
            "numChampions": 2
          },
          {
            "tag": "Bodyguard",
            "level": 2,
            "numChampions": 3
          },
          {
            "tag": "Syndicate",
            "level": 3,
            "numChampions": 3
          },
          {
            "tag": "Arcanist",
            "level": 2,
            "numChampions": 2
          }
        ],
        "spatulas": [],
        "score": 10,
        "numBonuses": 10
      },
      {
        "team": [
          "Blitzcrank",
          "Ekko",
          "Garen",
          "Katarina",
          "Leona"
        ],
        "meaningfulCombos": [
          {
            "tag": "Scrap",
            "level": 2,
            "numChampions": 2
          },
          {
            "tag": "Protector",
            "level": 2,
            "numChampions": 2
          },
          {
            "tag": "Bodyguard",
            "level": 2,
            "numChampions": 2
          },
          {
            "tag": "Assassin",
            "level": 2,
            "numChampions": 2
          },
          {
            "tag": "Academy",
            "level": 2,
            "numChampions": 3
          }
        ],
        "spatulas": [],
        "score": 10,
        "numBonuses": 11
      },
      {
        "team": [
          "Blitzcrank",
          "Garen",
          "Janna",
          "Leona",
          "Taric"
        ],
        "meaningfulCombos": [
          {
            "tag": "Scrap",
            "level": 2,
            "numChampions": 2
          },
          {
            "tag": "Protector",
            "level": 2,
            "numChampions": 2
          },
          {
            "tag": "Bodyguard",
            "level": 2,
            "numChampions": 2
          },
          {
            "tag": "Academy",
            "level": 2,
            "numChampions": 2
          },
          {
            "tag": "Enchanter",
            "level": 2,
            "numChampions": 2
          },
          {
            "tag": "Socialite",
            "level": 1,
            "numChampions": 1
          }
        ],
        "spatulas": [],
        "score": 10,
        "numBonuses": 11
      },
      {
        "team": [
          "Ezreal",
          "Heimerdinger",
          "Janna",
          "Orianna",
          "Zilean"
        ],
        "meaningfulCombos": [
          {
            "tag": "Scrap",
            "level": 2,
            "numChampions": 2
          },
          {
            "tag": "Innovator",
            "level": 3,
            "numChampions": 3
          },
          {
            "tag": "Scholar",
            "level": 2,
            "numChampions": 2
          },
          {
            "tag": "Enchanter",
            "level": 2,
            "numChampions": 2
          },
          {
            "tag": "Clockwork",
            "level": 2,
            "numChampions": 2
          }
        ],
        "spatulas": [],
        "score": 10,
        "numBonuses": 11
      },
      {
        "team": [
          "Ezreal",
          "Heimerdinger",
          "Janna",
          "Seraphine",
          "Taric"
        ],
        "meaningfulCombos": [
          {
            "tag": "Scrap",
            "level": 2,
            "numChampions": 2
          },
          {
            "tag": "Innovator",
            "level": 3,
            "numChampions": 3
          },
          {
            "tag": "Scholar",
            "level": 2,
            "numChampions": 2
          },
          {
            "tag": "Enchanter",
            "level": 2,
            "numChampions": 2
          },
          {
            "tag": "Socialite",
            "level": 2,
            "numChampions": 2
          }
        ],
        "spatulas": [],
        "score": 10,
        "numBonuses": 11
      },
      {
        "team": [
          "Ezreal",
          "Heimerdinger",
          "Seraphine",
          "Vex",
          "Ziggs"
        ],
        "meaningfulCombos": [
          {
            "tag": "Scrap",
            "level": 2,
            "numChampions": 2
          },
          {
            "tag": "Innovator",
            "level": 3,
            "numChampions": 3
          },
          {
            "tag": "Yordle",
            "level": 3,
            "numChampions": 3
          },
          {
            "tag": "Socialite",
            "level": 1,
            "numChampions": 1
          },
          {
            "tag": "Arcanist",
            "level": 2,
            "numChampions": 2
          }
        ],
        "spatulas": [],
        "score": 10,
        "numBonuses": 11
      },
      {
        "team": [
          "Ezreal",
          "Janna",
          "Orianna",
          "Seraphine",
          "Zilean"
        ],
        "meaningfulCombos": [
          {
            "tag": "Scrap",
            "level": 2,
            "numChampions": 2
          },
          {
            "tag": "Innovator",
            "level": 3,
            "numChampions": 3
          },
          {
            "tag": "Enchanter",
            "level": 2,
            "numChampions": 2
          },
          {
            "tag": "Clockwork",
            "level": 2,
            "numChampions": 2
          },
          {
            "tag": "Socialite",
            "level": 1,
            "numChampions": 1
          }
        ],
        "spatulas": [],
        "score": 10,
        "numBonuses": 10
      },
      {
        "team": [
          "Heimerdinger",
          "Janna",
          "Orianna",
          "Seraphine",
          "Zilean"
        ],
        "meaningfulCombos": [
          {
            "tag": "Scholar",
            "level": 2,
            "numChampions": 2
          },
          {
            "tag": "Innovator",
            "level": 3,
            "numChampions": 3
          },
          {
            "tag": "Enchanter",
            "level": 2,
            "numChampions": 2
          },
          {
            "tag": "Clockwork",
            "level": 2,
            "numChampions": 2
          },
          {
            "tag": "Socialite",
            "level": 1,
            "numChampions": 1
          }
        ],
        "spatulas": [],
        "score": 10,
        "numBonuses": 10
      },
      {
        "team": [
          "Heimerdinger",
          "Janna",
          "Taric",
          "Vex",
          "Ziggs"
        ],
        "meaningfulCombos": [
          {
            "tag": "Yordle",
            "level": 3,
            "numChampions": 3
          },
          {
            "tag": "Scholar",
            "level": 2,
            "numChampions": 2
          },
          {
            "tag": "Scrap",
            "level": 2,
            "numChampions": 2
          },
          {
            "tag": "Enchanter",
            "level": 2,
            "numChampions": 2
          },
          {
            "tag": "Socialite",
            "level": 1,
            "numChampions": 1
          },
          {
            "tag": "Arcanist",
            "level": 2,
            "numChampions": 2
          }
        ],
        "spatulas": [],
        "score": 10,
        "numBonuses": 12
      },
      {
        "team": [
          "Dr. Mundo",
          "Fiora",
          "Vi",
          "Warwick",
          "Zac"
        ],
        "meaningfulCombos": [
          {
            "tag": "Chemtech",
            "level": 3,
            "numChampions": 3
          },
          {
            "tag": "Bruiser",
            "level": 2,
            "numChampions": 3
          },
          {
            "tag": "Challenger",
            "level": 2,
            "numChampions": 2
          },
          {
            "tag": "Enforcer",
            "level": 2,
            "numChampions": 2
          }
        ],
        "spatulas": [],
        "score": 10,
        "numBonuses": 10
      },
      {
        "team": [
          "Dr. Mundo",
          "Ekko",
          "Trundle",
          "Twitch",
          "Zac"
        ],
        "meaningfulCombos": [
          {
            "tag": "Chemtech",
            "level": 3,
            "numChampions": 3
          },
          {
            "tag": "Bruiser",
            "level": 2,
            "numChampions": 3
          },
          {
            "tag": "Assassin",
            "level": 2,
            "numChampions": 2
          },
          {
            "tag": "Scrap",
            "level": 2,
            "numChampions": 2
          }
        ],
        "spatulas": [],
        "score": 10,
        "numBonuses": 10
      },
      {
        "team": [
          "Dr. Mundo",
          "Janna",
          "Lissandra",
          "Trundle",
          "Zac"
        ],
        "meaningfulCombos": [
          {
            "tag": "Chemtech",
            "level": 3,
            "numChampions": 3
          },
          {
            "tag": "Bruiser",
            "level": 2,
            "numChampions": 3
          },
          {
            "tag": "Scrap",
            "level": 2,
            "numChampions": 2
          },
          {
            "tag": "Scholar",
            "level": 2,
            "numChampions": 2
          }
        ],
        "spatulas": [],
        "score": 10,
        "numBonuses": 10
      },
      {
        "team": [
          "Braum",
          "Darius",
          "Leona",
          "Lux",
          "Twisted Fate"
        ],
        "meaningfulCombos": [
          {
            "tag": "Syndicate",
            "level": 3,
            "numChampions": 3
          },
          {
            "tag": "Arcanist",
            "level": 2,
            "numChampions": 2
          },
          {
            "tag": "Academy",
            "level": 2,
            "numChampions": 2
          },
          {
            "tag": "Bodyguard",
            "level": 2,
            "numChampions": 3
          }
        ],
        "spatulas": [],
        "score": 10,
        "numBonuses": 10
      },
      {
        "team": [
          "Blitzcrank",
          "Heimerdinger",
          "Janna",
          "Lulu",
          "Poppy"
        ],
        "meaningfulCombos": [
          {
            "tag": "Yordle",
            "level": 3,
            "numChampions": 3
          },
          {
            "tag": "Bodyguard",
            "level": 2,
            "numChampions": 2
          },
          {
            "tag": "Enchanter",
            "level": 2,
            "numChampions": 2
          },
          {
            "tag": "Scrap",
            "level": 2,
            "numChampions": 2
          },
          {
            "tag": "Scholar",
            "level": 2,
            "numChampions": 2
          }
        ],
        "spatulas": [],
        "score": 10,
        "numBonuses": 11
      },
      {
        "team": [
          "Blitzcrank",
          "Garen",
          "Leona",
          "Lux",
          "Ziggs"
        ],
        "meaningfulCombos": [
          {
            "tag": "Scrap",
            "level": 2,
            "numChampions": 2
          },
          {
            "tag": "Protector",
            "level": 2,
            "numChampions": 2
          },
          {
            "tag": "Bodyguard",
            "level": 2,
            "numChampions": 2
          },
          {
            "tag": "Arcanist",
            "level": 2,
            "numChampions": 2
          },
          {
            "tag": "Academy",
            "level": 2,
            "numChampions": 3
          }
        ],
        "spatulas": [],
        "score": 10,
        "numBonuses": 11
      },
      {
        "team": [
          "Braum",
          "Darius",
          "Katarina",
          "Leona",
          "Shaco"
        ],
        "meaningfulCombos": [
          {
            "tag": "Syndicate",
            "level": 3,
            "numChampions": 3
          },
          {
            "tag": "Bodyguard",
            "level": 2,
            "numChampions": 3
          },
          {
            "tag": "Assassin",
            "level": 2,
            "numChampions": 2
          },
          {
            "tag": "Academy",
            "level": 2,
            "numChampions": 2
          }
        ],
        "spatulas": [],
        "score": 10,
        "numBonuses": 10
      },
      {
        "team": [
          "Camille",
          "Graves",
          "Jhin",
          "Kog'Maw",
          "Yone"
        ],
        "meaningfulCombos": [
          {
            "tag": "Academy",
            "level": 2,
            "numChampions": 2
          },
          {
            "tag": "Twinshot",
            "level": 2,
            "numChampions": 2
          },
          {
            "tag": "Sniper",
            "level": 2,
            "numChampions": 2
          },
          {
            "tag": "Challenger",
            "level": 2,
            "numChampions": 2
          },
          {
            "tag": "Clockwork",
            "level": 2,
            "numChampions": 2
          }
        ],
        "spatulas": [],
        "score": 10,
        "numBonuses": 10
      },
      {
        "team": [
          "Dr. Mundo",
          "Janna",
          "Lissandra",
          "Taric",
          "Zac"
        ],
        "meaningfulCombos": [
          {
            "tag": "Chemtech",
            "level": 3,
            "numChampions": 3
          },
          {
            "tag": "Scholar",
            "level": 2,
            "numChampions": 2
          },
          {
            "tag": "Enchanter",
            "level": 2,
            "numChampions": 2
          },
          {
            "tag": "Bruiser",
            "level": 2,
            "numChampions": 2
          },
          {
            "tag": "Socialite",
            "level": 1,
            "numChampions": 1
          }
        ],
        "spatulas": [],
        "score": 10,
        "numBonuses": 10
      },
      {
        "team": [
          "Heimerdinger",
          "Janna",
          "Lulu",
          "Taric",
          "Ziggs"
        ],
        "meaningfulCombos": [
          {
            "tag": "Scrap",
            "level": 2,
            "numChampions": 2
          },
          {
            "tag": "Enchanter",
            "level": 3,
            "numChampions": 3
          },
          {
            "tag": "Scholar",
            "level": 2,
            "numChampions": 2
          },
          {
            "tag": "Yordle",
            "level": 3,
            "numChampions": 3
          },
          {
            "tag": "Socialite",
            "level": 1,
            "numChampions": 1
          }
        ],
        "spatulas": [],
        "score": 10,
        "numBonuses": 11
      },
      {
        "team": [
          "Blitzcrank",
          "Lulu",
          "Poppy",
          "Taric",
          "Ziggs"
        ],
        "meaningfulCombos": [
          {
            "tag": "Yordle",
            "level": 3,
            "numChampions": 3
          },
          {
            "tag": "Enchanter",
            "level": 2,
            "numChampions": 2
          },
          {
            "tag": "Bodyguard",
            "level": 2,
            "numChampions": 2
          },
          {
            "tag": "Socialite",
            "level": 1,
            "numChampions": 1
          },
          {
            "tag": "Scrap",
            "level": 2,
            "numChampions": 2
          }
        ],
        "spatulas": [],
        "score": 10,
        "numBonuses": 10
      },
      {
        "team": [
          "Janna",
          "Lulu",
          "Taric",
          "Vex",
          "Ziggs"
        ],
        "meaningfulCombos": [
          {
            "tag": "Yordle",
            "level": 3,
            "numChampions": 3
          },
          {
            "tag": "Enchanter",
            "level": 3,
            "numChampions": 3
          },
          {
            "tag": "Socialite",
            "level": 1,
            "numChampions": 1
          },
          {
            "tag": "Scrap",
            "level": 2,
            "numChampions": 2
          },
          {
            "tag": "Arcanist",
            "level": 2,
            "numChampions": 2
          }
        ],
        "spatulas": [],
        "score": 10,
        "numBonuses": 11
      },
      {
        "team": [
          "Caitlyn",
          "Fiora",
          "Graves",
          "Kog'Maw",
          "Yone"
        ],
        "meaningfulCombos": [
          {
            "tag": "Academy",
            "level": 2,
            "numChampions": 2
          },
          {
            "tag": "Twinshot",
            "level": 2,
            "numChampions": 2
          },
          {
            "tag": "Challenger",
            "level": 2,
            "numChampions": 2
          },
          {
            "tag": "Enforcer",
            "level": 2,
            "numChampions": 2
          },
          {
            "tag": "Sniper",
            "level": 2,
            "numChampions": 2
          }
        ],
        "spatulas": [],
        "score": 10,
        "numBonuses": 10
      },
      {
        "team": [
          "Braum",
          "Darius",
          "Janna",
          "Taric",
          "Zyra"
        ],
        "meaningfulCombos": [
          {
            "tag": "Syndicate",
            "level": 3,
            "numChampions": 3
          },
          {
            "tag": "Bodyguard",
            "level": 2,
            "numChampions": 2
          },
          {
            "tag": "Scholar",
            "level": 2,
            "numChampions": 2
          },
          {
            "tag": "Enchanter",
            "level": 2,
            "numChampions": 2
          },
          {
            "tag": "Socialite",
            "level": 1,
            "numChampions": 1
          }
        ],
        "spatulas": [],
        "score": 10,
        "numBonuses": 10
      }
    ]
  },
  "description": {
    "name": "results_set6_4-5-heur_v8",
    "tag": null,
    "tagLevel": 0,
    "withSpatula": false
  }
}